…
ℹ Use `spec()` to retrieve the full column specification for this data.
ℹ Specify the column types or set `show_col_types = FALSE` to quiet this message.
# A tibble: 6 × 6
  gene    baseMean log2FoldChange lfcSE pvalue  padj
  <chr>      <dbl>          <dbl> <dbl>  <dbl> <dbl>
1 PRDM16    285.         -0.00229 0.177  0.982 0.997
2 PEX14      60.8         0.0449  0.219  0.685 0.912
3 SPSB1       5.51        0.264   0.588  0.103 0.428
4 PLEKHM2    42.0         0.0301  0.215  0.783 0.949
5 NMNAT1     19.1         0.0956  0.278  0.440 0.793
6 DISP3      40.4        -0.0932  0.232  0.423 0.785
[1] "up_gene_res_table"
# A tibble: 134 × 6
   gene   baseMean log2FoldChange lfcSE   pvalue     padj
   <chr>     <dbl>          <dbl> <dbl>    <dbl>    <dbl>
 1 LRIG2     132.           2.22  0.454 5.69e- 9 6.27e- 7
 2 MAGI3     264.           0.848 0.309 2.30e- 4 6.01e- 3
 3 RPAP2     184.           0.601 0.299 2.07e- 3 3.29e- 2
 4 ITPKB     412.           1.07  0.239 4.35e- 7 2.99e- 5
 5 MRTO4      21.1          0.994 0.546 1.22e- 3 2.19e- 2
 6 SORT1     256.           1.26  0.376 1.71e- 5 7.27e- 4
 7 CAMTA1   1006.           0.945 0.139 1.13e-12 2.83e-10
 8 AXDND1     24.6          1.69  0.585 2.62e- 5 1.01e- 3
 9 CEP350    375.           0.734 0.233 8.76e- 5 2.70e- 3
10 PRKCE     167.           0.827 0.366 7.49e- 4 1.48e- 2
# ℹ 124 more rows
…
ℹ Use `spec()` to retrieve the full column specification for this data.
ℹ Specify the column types or set `show_col_types = FALSE` to quiet this message.
# A tibble: 6 × 6
  gene   baseMean log2FoldChange  lfcSE    pvalue     padj
  <chr>     <dbl>          <dbl>  <dbl>     <dbl>    <dbl>
1 PRDM16     34.8        -0.380  0.526  0.0664    0.182   
2 PEX10     272.         -0.0224 0.208  0.858     0.925   
3 PEX14    3276.          0.0254 0.0896 0.738     0.858   
4 PLCH2     744.         -0.769  0.367  0.00109   0.00714 
5 SPSB1     312.          1.01   0.302  0.0000212 0.000243
6 SLC2A5     22.7         0.0263 0.314  0.847     0.918   
[1] "up_gene_res_table"
# A tibble: 294 × 6
   gene    baseMean log2FoldChange lfcSE   pvalue     padj
   <chr>      <dbl>          <dbl> <dbl>    <dbl>    <dbl>
 1 SNRNP40   2001.           0.943 0.156 8.09e-11 2.69e- 9
 2 RAB3B      903.           0.933 0.263 1.10e- 5 1.37e- 4
 3 PLPP3      795.           2.80  0.220 2.64e-38 1.09e-35
 4 ATG4C     3273.           0.571 0.196 1.58e- 4 1.39e- 3
 5 WDR3       940.           0.408 0.148 6.14e- 4 4.41e- 3
 6 SOX13       90.5          2.14  0.705 3.77e- 5 4.00e- 4
 7 KIF26B    2871.           0.504 0.208 9.59e- 4 6.39e- 3
 8 RGSL1       94.3          2.90  0.561 1.26e- 8 3.03e- 7
 9 CDC7      1536.           0.419 0.178 1.76e- 3 1.06e- 2
10 PGD        803.           0.353 0.189 9.35e- 3 4.17e- 2
# ℹ 284 more rows
…
ℹ Use `spec()` to retrieve the full column specification for this data.
ℹ Specify the column types or set `show_col_types = FALSE` to quiet this message.
# A tibble: 6 × 6
  gene   baseMean log2FoldChange lfcSE pvalue   padj
  <chr>     <dbl>          <dbl> <dbl>  <dbl>  <dbl>
1 PRDM16     12.5        -0.189  0.423 0.222  0.449 
2 PEX10      70.0        -0.0654 0.224 0.581  0.767 
3 PEX14     840.          0.0614 0.111 0.485  0.699 
4 PLCH2     303.         -0.0555 0.140 0.576  0.764 
5 SPSB1      51.1         0.510  0.470 0.0195 0.0859
6 SLC2A5     11.6         0.0450 0.317 0.723  0.857 
[1] "up_gene_res_table"
# A tibble: 229 × 6
   gene    baseMean log2FoldChange lfcSE   pvalue     padj
   <chr>      <dbl>          <dbl> <dbl>    <dbl>    <dbl>
 1 SNRNP40    476.           0.646 0.233 2.19e- 4 2.56e- 3
 2 EYA3       973.           0.381 0.120 1.05e- 4 1.38e- 3
 3 PLPP3      313.           2.19  0.186 7.61e-33 7.89e-30
 4 ATG4C      834.           0.817 0.224 9.45e- 6 1.82e- 4
 5 TSPAN2     143.           0.629 0.309 1.63e- 3 1.30e- 2
 6 LRIG2     1099.           1.57  0.127 3.45e-36 4.93e-33
 7 NIBAN1     172.           2.65  0.248 6.14e-28 3.89e-25
 8 RHOU        74.1          1.20  0.511 3.12e- 4 3.45e- 3
 9 ARMH1      412.           1.09  0.259 6.82e- 7 1.80e- 5
10 SASS6      167.           0.888 0.233 4.67e- 6 9.85e- 5
# ℹ 219 more rows
…
ℹ Use `spec()` to retrieve the full column specification for this data.
ℹ Specify the column types or set `show_col_types = FALSE` to quiet this message.
# A tibble: 6 × 6
  gene    baseMean log2FoldChange lfcSE     pvalue      padj
  <chr>      <dbl>          <dbl> <dbl>      <dbl>     <dbl>
1 PEX14       32.9         0.114  0.339 0.623      0.824    
2 SPSB1       16.9         2.27   0.939 0.000277   0.00495  
3 SLC2A5     137.          1.27   0.321 0.00000138 0.0000644
4 PLEKHM2     36.8         0.260  0.363 0.282      0.556    
5 NMNAT1      10.2         0.434  0.600 0.137      0.367    
6 TMEM51      25.1         0.0607 0.382 0.798      0.919    
[1] "up_gene_res_table"
# A tibble: 37 × 6
   gene   baseMean log2FoldChange lfcSE   pvalue     padj
   <chr>     <dbl>          <dbl> <dbl>    <dbl>    <dbl>
 1 LRIG2      43.5          2.27  0.705 3.07e- 5 8.06e- 4
 2 MAGI3      68.7          3.08  0.740 1.52e- 6 6.97e- 5
 3 PADI2     105.           1.75  0.574 4.35e- 5 1.08e- 3
 4 SYT6       57.1          0.936 0.422 1.31e- 3 1.67e- 2
 5 NCK2      225.           1.28  0.327 1.65e- 6 7.46e- 5
 6 EHBP1     169.           3.66  0.433 2.79e-18 2.00e-15
 7 ITGAV     138.           1.87  0.634 6.23e- 5 1.44e- 3
 8 CCDC50    116.           0.827 0.410 3.19e- 3 3.15e- 2
 9 SH3TC1     95.2          1.87  0.430 4.14e- 7 2.46e- 5
10 SNX25      56.8          0.970 0.456 1.54e- 3 1.88e- 2
# ℹ 27 more rows
…
ℹ Use `spec()` to retrieve the full column specification for this data.
ℹ Specify the column types or set `show_col_types = FALSE` to quiet this message.
# A tibble: 6 × 6
  gene    baseMean log2FoldChange lfcSE      pvalue      padj
  <chr>      <dbl>          <dbl> <dbl>       <dbl>     <dbl>
1 PEX14      142.         0.00899 0.264 0.963       0.986    
2 PLCH2       26.8       -4.00    1.03  0.000000383 0.0000144
3 SPSB1      194.         0.820   0.489 0.00969     0.0612   
4 PLEKHM2     84.6       -0.108   0.362 0.629       0.825    
5 NMNAT1      64.6       -0.0500  0.349 0.820       0.922    
6 TMEM51      18.7       -0.283   0.601 0.300       0.570    
[1] "up_gene_res_table"
# A tibble: 149 × 6
   gene    baseMean log2FoldChange lfcSE        pvalue         padj
   <chr>      <dbl>          <dbl> <dbl>         <dbl>        <dbl>
 1 FOXJ3      740.           1.08  0.248 0.00000127    0.0000421   
 2 NUF2        29.2          1.57  0.696 0.000690      0.00815     
 3 LYPLAL1    389.           0.663 0.325 0.00524       0.0392      
 4 ARMH1       67.2          2.59  0.566 0.0000000233  0.00000114  
 5 COQ8A       64.4          1.71  0.472 0.0000142     0.000330    
 6 HS1BP3      58.2          1.01  0.520 0.00376       0.0305      
 7 ANXA4      511.           0.985 0.316 0.000131      0.00208     
 8 DNER      1262.           0.507 0.241 0.00723       0.0494      
 9 MITD1      106.           1.16  0.394 0.000220      0.00320     
10 NRP2       257.           3.22  0.645 0.00000000135 0.0000000906
# ℹ 139 more rows
…
ℹ Use `spec()` to retrieve the full column specification for this data.
ℹ Specify the column types or set `show_col_types = FALSE` to quiet this message.
# A tibble: 6 × 6
  gene    baseMean log2FoldChange lfcSE pvalue  padj
  <chr>      <dbl>          <dbl> <dbl>  <dbl> <dbl>
1 PEX14       37.6         0.157  0.278 0.344  0.636
2 SPSB1       54.8         0.625  0.538 0.0319 0.163
3 PLEKHM2     27.0        -0.211  0.357 0.279  0.574
4 NMNAT1      17.0         0.0267 0.290 0.874  0.950
5 FBXO42      82.0        -0.171  0.246 0.270  0.564
6 CLCN6       23.2        -0.0836 0.303 0.628  0.838
[1] "up_gene_res_table"
# A tibble: 84 × 6
   gene    baseMean log2FoldChange lfcSE   pvalue     padj
   <chr>      <dbl>          <dbl> <dbl>    <dbl>    <dbl>
 1 FOXJ3      210.           0.899 0.265 7.68e- 5 2.07e- 3
 2 PAPPA2      26.0          1.23  0.615 1.77e- 3 2.30e- 2
 3 ANXA4      129.           1.18  0.349 7.35e- 5 1.99e- 3
 4 MITD1       31.2          0.921 0.466 3.46e- 3 3.75e- 2
 5 NRP2        61.4          3.95  0.599 6.28e-14 2.01e-11
 6 RNF144A    420.           0.667 0.303 2.32e- 3 2.82e- 2
 7 CYBRD1      52.6          1.24  0.385 1.09e- 4 2.69e- 3
 8 ZC3H6      168.           1.11  0.267 5.75e- 6 2.43e- 4
 9 FANCL      286.           1.60  0.286 1.84e- 9 2.36e- 7
10 HIBCH      300.           0.950 0.217 2.27e- 6 1.09e- 4
# ℹ 74 more rows
…
ℹ Use `spec()` to retrieve the full column specification for this data.
ℹ Specify the column types or set `show_col_types = FALSE` to quiet this message.
# A tibble: 6 × 6
  gene   baseMean log2FoldChange lfcSE   pvalue    padj
  <chr>     <dbl>          <dbl> <dbl>    <dbl>   <dbl>
1 PRDM16   2795.           1.41  0.413 0.000188 0.00377
2 PEX10      18.4         -1.19  1.02  0.0539   0.175  
3 PEX14     775.           0.441 0.543 0.234    0.448  
4 PLCH2      32.0          0.194 0.823 0.692    0.839  
5 SPSB1      46.3          0.293 0.824 0.552    0.744  
6 SLC2A5     30.7          0.790 0.984 0.164    0.360  
[1] "up_gene_res_table"
# A tibble: 108 × 6
   gene      baseMean log2FoldChange lfcSE       pvalue       padj
   <chr>        <dbl>          <dbl> <dbl>        <dbl>      <dbl>
 1 KDM4A         518.           3.14 1.15  0.000149     0.00316   
 2 CTTNBP2NL     263.           1.83 0.629 0.000607     0.00867   
 3 PADI2        1986.           3.92 0.824 0.0000000179 0.00000263
 4 ENSA         3409.           3.66 0.813 0.0000000760 0.00000909
 5 SLC45A1       429.           2.45 0.772 0.000112     0.00257   
 6 SEMA4A        941.           3.48 0.730 0.0000000234 0.00000327
 7 SYDE2         282.           3.31 1.01  0.0000196    0.000722  
 8 USP21         183.           4.74 1.51  0.0000180    0.000674  
 9 ACVR1C        242.           2.37 0.620 0.0000133    0.000543  
10 GCC2         1832.           1.65 0.694 0.00277      0.0245    
# ℹ 98 more rows
…
ℹ Use `spec()` to retrieve the full column specification for this data.
ℹ Specify the column types or set `show_col_types = FALSE` to quiet this message.
# A tibble: 6 × 6
  gene   baseMean log2FoldChange lfcSE  pvalue    padj
  <chr>     <dbl>          <dbl> <dbl>   <dbl>   <dbl>
1 PRDM16     498.         -0.797 0.509 0.0111  0.0408 
2 PEX10     2519.         -1.06  0.756 0.00879 0.0341 
3 PEX14    27579.          0.202 0.221 0.270   0.446  
4 PLCH2     6672.         -0.319 0.414 0.203   0.367  
5 SPSB1     2273.          1.01  0.461 0.00140 0.00752
6 SLC2A5     995.          0.248 0.351 0.286   0.463  
[1] "up_gene_res_table"
# A tibble: 324 × 6
   gene    baseMean log2FoldChange  lfcSE   pvalue     padj
   <chr>      <dbl>          <dbl>  <dbl>    <dbl>    <dbl>
 1 CLCN6     14713.          0.663 0.348  7.97e- 3 3.15e- 2
 2 EYA3      47288.          0.385 0.0904 9.93e- 6 1.00e- 4
 3 PTPRF     26983.          0.493 0.212  5.66e- 3 2.39e- 2
 4 SPAG17     8445.          2.05  0.376  2.16e- 9 4.43e- 8
 5 PRRX1      3396.          2.74  0.438  3.34e-11 8.66e-10
 6 FBXO28    43036.          0.430 0.139  7.42e- 4 4.36e- 3
 7 PLXNA2   110516.          0.629 0.298  5.46e- 3 2.33e- 2
 8 PROX1       855.          2.85  0.464  5.86e-11 1.46e- 9
 9 DSTYK     29364.          0.605 0.160  2.65e- 5 2.41e- 4
10 ANKRD45    4253.          0.882 0.335  5.45e- 4 3.37e- 3
# ℹ 314 more rows
…
ℹ Use `spec()` to retrieve the full column specification for this data.
ℹ Specify the column types or set `show_col_types = FALSE` to quiet this message.
# A tibble: 6 × 6
  gene   baseMean log2FoldChange lfcSE pvalue   padj
  <chr>     <dbl>          <dbl> <dbl>  <dbl>  <dbl>
1 PRDM16     156.        -0.512  0.358 0.0271 0.101 
2 PEX10      959.        -0.881  0.761 0.0181 0.0747
3 PEX14    13154.         0.0643 0.253 0.712  0.851 
4 PLCH2     4263.        -0.153  0.354 0.455  0.666 
5 SPSB1      620.         0.599  0.392 0.0171 0.0715
6 SLC2A5     353.         0.227  0.337 0.267  0.483 
[1] "up_gene_res_table"
# A tibble: 234 × 6
   gene    baseMean log2FoldChange lfcSE   pvalue     padj
   <chr>      <dbl>          <dbl> <dbl>    <dbl>    <dbl>
 1 TTF2       2837.          1.65  0.317 1.13e- 8 3.05e- 7
 2 DSTYK     12927.          0.481 0.211 3.64e- 3 2.16e- 2
 3 BRINP2    44950.          0.471 0.212 4.51e- 3 2.56e- 2
 4 NUCKS1    30141.          0.826 0.310 5.23e- 4 4.47e- 3
 5 ARTN        562.          1.68  0.448 6.39e- 6 9.84e- 5
 6 ENSA      33838.          2.65  0.302 2.39e-20 2.58e-18
 7 MCL1       1562.          0.679 0.237 3.27e- 4 3.02e- 3
 8 SLC45A1    9008.          1.90  0.348 1.60e- 9 5.03e- 8
 9 TRIM58      989.          0.996 0.483 2.23e- 3 1.48e- 2
10 TEKT2       262.          1.32  0.594 9.04e- 4 7.05e- 3
# ℹ 224 more rows
…
ℹ Use `spec()` to retrieve the full column specification for this data.
ℹ Specify the column types or set `show_col_types = FALSE` to quiet this message.
# A tibble: 6 × 6
  gene   baseMean log2FoldChange lfcSE  pvalue   padj
  <chr>     <dbl>          <dbl> <dbl>   <dbl>  <dbl>
1 PRDM16     19.8        -0.598  1.21  0.137   0.432 
2 PEX10      27.3        -0.786  1.24  0.0805  0.322 
3 PEX14     901.         -0.0131 0.161 0.816   0.968 
4 PLCH2     110.         -1.71   1.53  0.0123  0.0996
5 SPSB1     817.          2.36   1.12  0.00149 0.0221
6 SLC2A5     17.5         0.168  0.729 0.538   0.837 
[1] "up_gene_res_table"
# A tibble: 141 × 6
   gene     baseMean log2FoldChange lfcSE   pvalue     padj
   <chr>       <dbl>          <dbl> <dbl>    <dbl>    <dbl>
 1 CLSPN        57.0           4.72 1.64  2.97e- 5 1.04e- 3
 2 ECHDC2      282.            2.20 0.960 1.18e- 3 1.86e- 2
 3 SOX13       371.            2.87 1.51  1.29e- 3 1.99e- 2
 4 TRIM63       67.2           6.23 1.67  4.63e- 7 3.19e- 5
 5 HPCAL4      195.            2.69 1.17  8.06e- 4 1.37e- 2
 6 ARHGAP30    102.            2.46 2.01  4.24e- 3 4.86e- 2
 7 SLC45A1     711.            4.74 0.851 3.82e-10 7.40e- 8
 8 AHDC1       469.            2.17 0.795 5.02e- 4 9.65e- 3
 9 CAPN9       536.            3.81 1.66  2.62e- 4 5.96e- 3
10 GLIS1       348.            6.07 0.913 5.40e-14 2.84e-11
# ℹ 131 more rows
…
ℹ Use `spec()` to retrieve the full column specification for this data.
ℹ Specify the column types or set `show_col_types = FALSE` to quiet this message.
# A tibble: 6 × 6
  gene   baseMean log2FoldChange lfcSE  pvalue    padj
  <chr>     <dbl>          <dbl> <dbl>   <dbl>   <dbl>
1 PRDM16     3.15        -0.0632 1.01  0.843   NA     
2 PEX10     12.7         -1.81   1.71  0.00887  0.0778
3 PEX14    203.           0.139  0.508 0.644    0.845 
4 PLCH2      2.15        -0.116  1.04  0.715   NA     
5 SPSB1     86.9          1.24   0.730 0.00874  0.0772
6 SLC2A5     5.20         0.315  0.918 0.396   NA     
[1] "up_gene_res_table"
# A tibble: 166 × 6
   gene    baseMean log2FoldChange lfcSE      pvalue      padj
   <chr>      <dbl>          <dbl> <dbl>       <dbl>     <dbl>
 1 RIMS3       82.8           2.84 0.939 0.0000430   0.00221  
 2 LRP8       282.            2.64 0.735 0.0000108   0.000798 
 3 UCK2       200.            2.27 1.04  0.000803    0.0176   
 4 AUNIP      104.            2.14 2.72  0.00346     0.0440   
 5 RPA2       139.            2.89 1.84  0.00120     0.0229   
 6 DENND4B    209.            3.82 1.60  0.0000933   0.00391  
 7 SLC45A1    219.            2.44 0.806 0.0000880   0.00372  
 8 AHDC1      218.            2.22 0.490 0.000000647 0.0000822
 9 ECE1       122.            2.11 0.920 0.000818    0.0178   
10 B4GALT2     73.2           2.44 1.53  0.00187     0.0293   
# ℹ 156 more rows
…
ℹ Use `spec()` to retrieve the full column specification for this data.
ℹ Specify the column types or set `show_col_types = FALSE` to quiet this message.
# A tibble: 6 × 6
  gene   baseMean log2FoldChange lfcSE pvalue  padj
  <chr>     <dbl>          <dbl> <dbl>  <dbl> <dbl>
1 PRDM16   4117.         -0.0695 0.209  0.650 0.858
2 PEX10     129.         -0.244  0.305  0.147 0.411
3 PEX14     866.         -0.0102 0.193  0.945 0.987
4 PLCH2      47.2         0.0623 0.495  0.674 0.871
5 SPSB1      66.5        -0.0116 0.323  0.935 0.983
6 SLC2A5     75.4         0.0877 0.348  0.544 0.803
[1] "up_gene_res_table"
# A tibble: 38 × 6
   gene     baseMean log2FoldChange lfcSE   pvalue     padj
   <chr>       <dbl>          <dbl> <dbl>    <dbl>    <dbl>
 1 LRIG2       1156.          1.99  0.225 1.45e-19 6.14e-17
 2 ADAMTSL4     153.          2.47  0.685 1.31e- 5 4.11e- 4
 3 ADGRL2      1116.          8.26  0.799 8.59e-27 8.75e-24
 4 EHBP1       6300.          0.459 0.171 1.09e- 3 1.37e- 2
 5 ALMS1       1483.          0.513 0.141 2.79e- 5 7.51e- 4
 6 RMND5A       849.          0.568 0.187 1.45e- 4 2.85e- 3
 7 HGD          240.          5.35  1.03  3.61e- 8 2.61e- 6
 8 OXNAD1       982.          0.441 0.203 4.68e- 3 4.04e- 2
 9 CACNA2D3   12945.          2.35  0.359 1.80e-11 2.91e- 9
10 INTU        4948.          1.29  0.329 3.71e- 7 2.09e- 5
# ℹ 28 more rows
…
ℹ Use `spec()` to retrieve the full column specification for this data.
ℹ Specify the column types or set `show_col_types = FALSE` to quiet this message.
# A tibble: 6 × 6
  gene   baseMean log2FoldChange lfcSE    pvalue    padj
  <chr>     <dbl>          <dbl> <dbl>     <dbl>   <dbl>
1 PRDM16     354.         0.470  0.602 0.0863    0.223  
2 PEX10     2003.        -0.101  0.217 0.598     0.763  
3 PEX14     7971.        -0.321  0.204 0.0782    0.209  
4 PLCH2     2944.         0.0447 0.370 0.858     0.926  
5 SPSB1     1361.         0.607  0.479 0.0350    0.119  
6 SLC2A5     168.        -2.21   0.980 0.0000819 0.00119
[1] "up_gene_res_table"
# A tibble: 218 × 6
   gene    baseMean log2FoldChange lfcSE    pvalue     padj
   <chr>      <dbl>          <dbl> <dbl>     <dbl>    <dbl>
 1 RRAGC      3181.          0.992 0.393 0.000481  0.00477 
 2 LMO4      81998.          0.920 0.306 0.000174  0.00216 
 3 GPR88      1246.          1.01  0.615 0.00349   0.0214  
 4 NENF       2401.          1.32  0.572 0.000258  0.00297 
 5 EXOC8      2079.          1.25  0.458 0.0000904 0.00129 
 6 FAM43B     1019.          1.03  0.584 0.00245   0.0164  
 7 ATP1A1    43722.          1.00  0.327 0.0000899 0.00129 
 8 SYT11     34551.          0.762 0.410 0.00695   0.0357  
 9 ST3GAL3    1162.          1.45  0.512 0.0000337 0.000580
10 LRRC47     5412.          0.990 0.328 0.000112  0.00152 
# ℹ 208 more rows
…
ℹ Use `spec()` to retrieve the full column specification for this data.
ℹ Specify the column types or set `show_col_types = FALSE` to quiet this message.
# A tibble: 6 × 6
  gene   baseMean log2FoldChange lfcSE pvalue  padj
  <chr>     <dbl>          <dbl> <dbl>  <dbl> <dbl>
1 PRDM16     40.2       -0.00481 0.363  0.973 0.989
2 PEX10     664.        -0.0256  0.207  0.870 0.945
3 PEX14    2585.        -0.206   0.147  0.107 0.323
4 PLCH2    1671.         0.174   0.218  0.278 0.546
5 SPSB1     184.         0.183   0.342  0.269 0.537
6 SLC2A5     57.1       -0.0918  0.358  0.538 0.765
[1] "up_gene_res_table"
# A tibble: 88 × 6
   gene     baseMean log2FoldChange lfcSE      pvalue      padj
   <chr>       <dbl>          <dbl> <dbl>       <dbl>     <dbl>
 1 RNASEL       387.          0.625 0.340 0.00296     0.0312   
 2 LAMB3        340.          0.892 0.532 0.00137     0.0182   
 3 EXOC8        593.          0.583 0.318 0.00392     0.0379   
 4 SYT11      10891.          0.616 0.200 0.000114    0.00277  
 5 MAPKAPK2     467.          0.721 0.310 0.000505    0.00886  
 6 EFCAB14     2544.          0.604 0.210 0.000237    0.00498  
 7 CADM3       6234.          0.518 0.151 0.0000757   0.00200  
 8 CELSR2      2340.          0.979 0.231 0.000000134 0.0000106
 9 WRAP73       629.          0.716 0.339 0.000926    0.0137   
10 CD55        1011.          0.592 0.224 0.000524    0.00909  
# ℹ 78 more rows
…
