…
ℹ Use `spec()` to retrieve the full column specification for this data.
ℹ Specify the column types or set `show_col_types = FALSE` to quiet this message.
Rows: 7476 Columns: 6
── Column specification ────────────────────────────────────────────────────────
Delimiter: ","
chr (1): gene
dbl (5): baseMean, log2FoldChange, lfcSE, pvalue, padj

ℹ Use `spec()` to retrieve the full column specification for this data.
ℹ Specify the column types or set `show_col_types = FALSE` to quiet this message.
# A tibble: 7,486 × 6
   gene    baseMean log2FoldChange lfcSE pvalue  padj
   <chr>      <dbl>          <dbl> <dbl>  <dbl> <dbl>
 1 PRDM16    285.         -0.00229 0.177 0.982  0.997
 2 PEX14      60.8         0.0449  0.219 0.685  0.912
 3 SPSB1       5.51        0.264   0.588 0.103  0.428
 4 PLEKHM2    42.0         0.0301  0.215 0.783  0.949
 5 NMNAT1     19.1         0.0956  0.278 0.440  0.793
 6 DISP3      40.4        -0.0932  0.232 0.423  0.785
 7 TMEM51     39.2        -0.0142  0.195 0.892  0.981
 8 FBXO42    116.         -0.0313  0.160 0.748  0.940
 9 ALDH4A1    23.7        -0.399   0.403 0.0339 0.228
10 CLCN6      43.1        -0.198   0.292 0.152  0.525
# ℹ 7,476 more rows
…
ℹ Use `spec()` to retrieve the full column specification for this data.
ℹ Specify the column types or set `show_col_types = FALSE` to quiet this message.
Rows: 12437 Columns: 6
── Column specification ────────────────────────────────────────────────────────
Delimiter: ","
chr (1): gene
dbl (5): baseMean, log2FoldChange, lfcSE, pvalue, padj

ℹ Use `spec()` to retrieve the full column specification for this data.
ℹ Specify the column types or set `show_col_types = FALSE` to quiet this message.
# A tibble: 12,394 × 6
   gene    baseMean log2FoldChange  lfcSE    pvalue     padj
   <chr>      <dbl>          <dbl>  <dbl>     <dbl>    <dbl>
 1 PRDM16      34.8        -0.380  0.526  0.0664    0.182   
 2 PEX10      272.         -0.0224 0.208  0.858     0.925   
 3 PEX14     3276.          0.0254 0.0896 0.738     0.858   
 4 PLCH2      744.         -0.769  0.367  0.00109   0.00714 
 5 SPSB1      312.          1.01   0.302  0.0000212 0.000243
 6 SLC2A5      22.7         0.0263 0.314  0.847     0.918   
 7 PLEKHM2   2650.          0.317  0.113  0.00104   0.00683 
 8 NMNAT1     796.          0.0653 0.163  0.570     0.744   
 9 DISP3      697.          0.542  0.222  0.000779  0.00538 
10 TMEM51      66.8         0.0323 0.308  0.812     0.897   
# ℹ 12,384 more rows
…
ℹ Use `spec()` to retrieve the full column specification for this data.
ℹ Specify the column types or set `show_col_types = FALSE` to quiet this message.
Rows: 11375 Columns: 6
── Column specification ────────────────────────────────────────────────────────
Delimiter: ","
chr (1): gene
dbl (5): baseMean, log2FoldChange, lfcSE, pvalue, padj

ℹ Use `spec()` to retrieve the full column specification for this data.
ℹ Specify the column types or set `show_col_types = FALSE` to quiet this message.
# A tibble: 11,409 × 6
   gene    baseMean log2FoldChange lfcSE  pvalue   padj
   <chr>      <dbl>          <dbl> <dbl>   <dbl>  <dbl>
 1 PRDM16      12.5        -0.189  0.423 0.222   0.449 
 2 PEX10       70.0        -0.0654 0.224 0.581   0.767 
 3 PEX14      840.          0.0614 0.111 0.485   0.699 
 4 PLCH2      303.         -0.0555 0.140 0.576   0.764 
 5 SPSB1       51.1         0.510  0.470 0.0195  0.0859
 6 SLC2A5      11.6         0.0450 0.317 0.723   0.857 
 7 PLEKHM2    554.          0.244  0.138 0.0180  0.0808
 8 NMNAT1     204.         -0.0539 0.158 0.605   0.784 
 9 DISP3      209.          0.329  0.213 0.0163  0.0753
10 TMEM51     160.         -0.611  0.340 0.00304 0.0212
# ℹ 11,399 more rows
…
ℹ Use `spec()` to retrieve the full column specification for this data.
ℹ Specify the column types or set `show_col_types = FALSE` to quiet this message.
Rows: 4450 Columns: 6
── Column specification ────────────────────────────────────────────────────────
Delimiter: ","
chr (1): gene
dbl (5): baseMean, log2FoldChange, lfcSE, pvalue, padj

ℹ Use `spec()` to retrieve the full column specification for this data.
ℹ Specify the column types or set `show_col_types = FALSE` to quiet this message.
# A tibble: 4,305 × 6
   gene    baseMean log2FoldChange lfcSE     pvalue      padj
   <chr>      <dbl>          <dbl> <dbl>      <dbl>     <dbl>
 1 PEX14      32.9          0.114  0.339 0.623      0.824    
 2 SPSB1      16.9          2.27   0.939 0.000277   0.00495  
 3 SLC2A5    137.           1.27   0.321 0.00000138 0.0000644
 4 PLEKHM2    36.8          0.260  0.363 0.282      0.556    
 5 NMNAT1     10.2          0.434  0.600 0.137      0.367    
 6 TMEM51     25.1          0.0607 0.382 0.798      0.919    
 7 FBXO42     38.3         -0.652  0.698 0.0526     0.208    
 8 CLCN6      15.9         -0.319  0.657 0.257      0.527    
 9 RER1        9.85        -0.170  0.555 0.504      0.745    
10 VPS13D    124.           0.252  0.306 0.268      0.539    
# ℹ 4,295 more rows
…
ℹ Use `spec()` to retrieve the full column specification for this data.
ℹ Specify the column types or set `show_col_types = FALSE` to quiet this message.
Rows: 8209 Columns: 6
── Column specification ────────────────────────────────────────────────────────
Delimiter: ","
chr (1): gene
dbl (5): baseMean, log2FoldChange, lfcSE, pvalue, padj

ℹ Use `spec()` to retrieve the full column specification for this data.
ℹ Specify the column types or set `show_col_types = FALSE` to quiet this message.
# A tibble: 7,991 × 6
   gene    baseMean log2FoldChange lfcSE      pvalue      padj
   <chr>      <dbl>          <dbl> <dbl>       <dbl>     <dbl>
 1 PEX14      142.         0.00899 0.264 0.963       0.986    
 2 PLCH2       26.8       -4.00    1.03  0.000000383 0.0000144
 3 SPSB1      194.         0.820   0.489 0.00969     0.0612   
 4 PLEKHM2     84.6       -0.108   0.362 0.629       0.825    
 5 NMNAT1      64.6       -0.0500  0.349 0.820       0.922    
 6 TMEM51      18.7       -0.283   0.601 0.300       0.570    
 7 FBXO42     255.        -0.0830  0.212 0.624       0.824    
 8 CLCN6       83.9       -0.386   0.404 0.123       0.336    
 9 RER1        48.0       -0.0807  0.458 0.741       0.887    
10 VPS13D     536.        -0.109   0.198 0.502       0.742    
# ℹ 7,981 more rows
…
ℹ Use `spec()` to retrieve the full column specification for this data.
ℹ Specify the column types or set `show_col_types = FALSE` to quiet this message.
Rows: 6424 Columns: 6
── Column specification ────────────────────────────────────────────────────────
Delimiter: ","
chr (1): gene
dbl (5): baseMean, log2FoldChange, lfcSE, pvalue, padj

ℹ Use `spec()` to retrieve the full column specification for this data.
ℹ Specify the column types or set `show_col_types = FALSE` to quiet this message.
# A tibble: 6,414 × 6
   gene    baseMean log2FoldChange lfcSE pvalue  padj
   <chr>      <dbl>          <dbl> <dbl>  <dbl> <dbl>
 1 PEX14       37.6         0.157  0.278 0.344  0.636
 2 SPSB1       54.8         0.625  0.538 0.0319 0.163
 3 PLEKHM2     27.0        -0.211  0.357 0.279  0.574
 4 NMNAT1      17.0         0.0267 0.290 0.874  0.950
 5 FBXO42      82.0        -0.171  0.246 0.270  0.564
 6 CLCN6       23.2        -0.0836 0.303 0.628  0.838
 7 RER1        15.9        -0.0833 0.348 0.655  0.853
 8 VPS13D     158.         -0.0441 0.178 0.730  0.889
 9 ZBTB40      25.8         0.179  0.326 0.328  0.619
10 NPHP4       13.6        -0.460  0.521 0.0807 0.295
# ℹ 6,404 more rows
…
