…
ℹ Use `spec()` to retrieve the full column specification for this data.
ℹ Specify the column types or set `show_col_types = FALSE` to quiet this message.
Rows: 7476 Columns: 6
── Column specification ────────────────────────────────────────────────────────
Delimiter: ","
chr (1): gene
dbl (5): baseMean, log2FoldChange, lfcSE, pvalue, padj

ℹ Use `spec()` to retrieve the full column specification for this data.
ℹ Specify the column types or set `show_col_types = FALSE` to quiet this message.
# A tibble: 14,972 × 6
   gene    baseMean log2FoldChange lfcSE pvalue  padj
   <chr>      <dbl>          <dbl> <dbl>  <dbl> <dbl>
 1 PRDM16    285.         -0.00229 0.177 0.982  0.997
 2 PEX14      60.8         0.0449  0.219 0.685  0.912
 3 SPSB1       5.51        0.264   0.588 0.103  0.428
 4 PLEKHM2    42.0         0.0301  0.215 0.783  0.949
 5 NMNAT1     19.1         0.0956  0.278 0.440  0.793
 6 DISP3      40.4        -0.0932  0.232 0.423  0.785
 7 TMEM51     39.2        -0.0142  0.195 0.892  0.981
 8 FBXO42    116.         -0.0313  0.160 0.748  0.940
 9 ALDH4A1    23.7        -0.399   0.403 0.0339 0.228
10 CLCN6      43.1        -0.198   0.292 0.152  0.525
# ℹ 14,962 more rows
…
ℹ Use `spec()` to retrieve the full column specification for this data.
ℹ Specify the column types or set `show_col_types = FALSE` to quiet this message.
Rows: 12437 Columns: 6
── Column specification ────────────────────────────────────────────────────────
Delimiter: ","
chr (1): gene
dbl (5): baseMean, log2FoldChange, lfcSE, pvalue, padj

ℹ Use `spec()` to retrieve the full column specification for this data.
ℹ Specify the column types or set `show_col_types = FALSE` to quiet this message.
# A tibble: 12,394 × 6
   gene    baseMean log2FoldChange  lfcSE    pvalue     padj
   <chr>      <dbl>          <dbl>  <dbl>     <dbl>    <dbl>
 1 PRDM16      34.8        -0.380  0.526  0.0664    0.182   
 2 PEX10      272.         -0.0224 0.208  0.858     0.925   
 3 PEX14     3276.          0.0254 0.0896 0.738     0.858   
 4 PLCH2      744.         -0.769  0.367  0.00109   0.00714 
 5 SPSB1      312.          1.01   0.302  0.0000212 0.000243
 6 SLC2A5      22.7         0.0263 0.314  0.847     0.918   
 7 PLEKHM2   2650.          0.317  0.113  0.00104   0.00683 
 8 NMNAT1     796.          0.0653 0.163  0.570     0.744   
 9 DISP3      697.          0.542  0.222  0.000779  0.00538 
10 TMEM51      66.8         0.0323 0.308  0.812     0.897   
# ℹ 12,384 more rows
…
ℹ Use `spec()` to retrieve the full column specification for this data.
ℹ Specify the column types or set `show_col_types = FALSE` to quiet this message.
Rows: 11375 Columns: 6
── Column specification ────────────────────────────────────────────────────────
Delimiter: ","
chr (1): gene
dbl (5): baseMean, log2FoldChange, lfcSE, pvalue, padj

ℹ Use `spec()` to retrieve the full column specification for this data.
ℹ Specify the column types or set `show_col_types = FALSE` to quiet this message.
# A tibble: 11,409 × 6
   gene    baseMean log2FoldChange lfcSE  pvalue   padj
   <chr>      <dbl>          <dbl> <dbl>   <dbl>  <dbl>
 1 PRDM16      12.5        -0.189  0.423 0.222   0.449 
 2 PEX10       70.0        -0.0654 0.224 0.581   0.767 
 3 PEX14      840.          0.0614 0.111 0.485   0.699 
 4 PLCH2      303.         -0.0555 0.140 0.576   0.764 
 5 SPSB1       51.1         0.510  0.470 0.0195  0.0859
 6 SLC2A5      11.6         0.0450 0.317 0.723   0.857 
 7 PLEKHM2    554.          0.244  0.138 0.0180  0.0808
 8 NMNAT1     204.         -0.0539 0.158 0.605   0.784 
 9 DISP3      209.          0.329  0.213 0.0163  0.0753
10 TMEM51     160.         -0.611  0.340 0.00304 0.0212
# ℹ 11,399 more rows
…
ℹ Use `spec()` to retrieve the full column specification for this data.
ℹ Specify the column types or set `show_col_types = FALSE` to quiet this message.
Rows: 4450 Columns: 6
── Column specification ────────────────────────────────────────────────────────
Delimiter: ","
chr (1): gene
dbl (5): baseMean, log2FoldChange, lfcSE, pvalue, padj

ℹ Use `spec()` to retrieve the full column specification for this data.
ℹ Specify the column types or set `show_col_types = FALSE` to quiet this message.
# A tibble: 4,305 × 6
   gene    baseMean log2FoldChange lfcSE     pvalue      padj
   <chr>      <dbl>          <dbl> <dbl>      <dbl>     <dbl>
 1 PEX14      32.9          0.114  0.339 0.623      0.824    
 2 SPSB1      16.9          2.27   0.939 0.000277   0.00495  
 3 SLC2A5    137.           1.27   0.321 0.00000138 0.0000644
 4 PLEKHM2    36.8          0.260  0.363 0.282      0.556    
 5 NMNAT1     10.2          0.434  0.600 0.137      0.367    
 6 TMEM51     25.1          0.0607 0.382 0.798      0.919    
 7 FBXO42     38.3         -0.652  0.698 0.0526     0.208    
 8 CLCN6      15.9         -0.319  0.657 0.257      0.527    
 9 RER1        9.85        -0.170  0.555 0.504      0.745    
10 VPS13D    124.           0.252  0.306 0.268      0.539    
# ℹ 4,295 more rows
…
ℹ Use `spec()` to retrieve the full column specification for this data.
ℹ Specify the column types or set `show_col_types = FALSE` to quiet this message.
Rows: 8209 Columns: 6
── Column specification ────────────────────────────────────────────────────────
Delimiter: ","
chr (1): gene
dbl (5): baseMean, log2FoldChange, lfcSE, pvalue, padj

ℹ Use `spec()` to retrieve the full column specification for this data.
ℹ Specify the column types or set `show_col_types = FALSE` to quiet this message.
# A tibble: 7,991 × 6
   gene    baseMean log2FoldChange lfcSE      pvalue      padj
   <chr>      <dbl>          <dbl> <dbl>       <dbl>     <dbl>
 1 PEX14      142.         0.00899 0.264 0.963       0.986    
 2 PLCH2       26.8       -4.00    1.03  0.000000383 0.0000144
 3 SPSB1      194.         0.820   0.489 0.00969     0.0612   
 4 PLEKHM2     84.6       -0.108   0.362 0.629       0.825    
 5 NMNAT1      64.6       -0.0500  0.349 0.820       0.922    
 6 TMEM51      18.7       -0.283   0.601 0.300       0.570    
 7 FBXO42     255.        -0.0830  0.212 0.624       0.824    
 8 CLCN6       83.9       -0.386   0.404 0.123       0.336    
 9 RER1        48.0       -0.0807  0.458 0.741       0.887    
10 VPS13D     536.        -0.109   0.198 0.502       0.742    
# ℹ 7,981 more rows
…
ℹ Use `spec()` to retrieve the full column specification for this data.
ℹ Specify the column types or set `show_col_types = FALSE` to quiet this message.
Rows: 6424 Columns: 6
── Column specification ────────────────────────────────────────────────────────
Delimiter: ","
chr (1): gene
dbl (5): baseMean, log2FoldChange, lfcSE, pvalue, padj

ℹ Use `spec()` to retrieve the full column specification for this data.
ℹ Specify the column types or set `show_col_types = FALSE` to quiet this message.
# A tibble: 6,414 × 6
   gene    baseMean log2FoldChange lfcSE pvalue  padj
   <chr>      <dbl>          <dbl> <dbl>  <dbl> <dbl>
 1 PEX14       37.6         0.157  0.278 0.344  0.636
 2 SPSB1       54.8         0.625  0.538 0.0319 0.163
 3 PLEKHM2     27.0        -0.211  0.357 0.279  0.574
 4 NMNAT1      17.0         0.0267 0.290 0.874  0.950
 5 FBXO42      82.0        -0.171  0.246 0.270  0.564
 6 CLCN6       23.2        -0.0836 0.303 0.628  0.838
 7 RER1        15.9        -0.0833 0.348 0.655  0.853
 8 VPS13D     158.         -0.0441 0.178 0.730  0.889
 9 ZBTB40      25.8         0.179  0.326 0.328  0.619
10 NPHP4       13.6        -0.460  0.521 0.0807 0.295
# ℹ 6,404 more rows
…
ℹ Use `spec()` to retrieve the full column specification for this data.
ℹ Specify the column types or set `show_col_types = FALSE` to quiet this message.
Rows: 12901 Columns: 6
── Column specification ────────────────────────────────────────────────────────
Delimiter: ","
chr (1): gene
dbl (5): baseMean, log2FoldChange, lfcSE, pvalue, padj

ℹ Use `spec()` to retrieve the full column specification for this data.
ℹ Specify the column types or set `show_col_types = FALSE` to quiet this message.
# A tibble: 12,981 × 6
   gene    baseMean log2FoldChange lfcSE   pvalue     padj
   <chr>      <dbl>          <dbl> <dbl>    <dbl>    <dbl>
 1 PRDM16   2795.           1.41   0.413 0.000188  0.00377
 2 PEX10      18.4         -1.19   1.02  0.0539    0.175  
 3 PEX14     775.           0.441  0.543 0.234     0.448  
 4 PLCH2      32.0          0.194  0.823 0.692     0.839  
 5 SPSB1      46.3          0.293  0.824 0.552     0.744  
 6 SLC2A5     30.7          0.790  0.984 0.164     0.360  
 7 PLEKHM2   519.           0.269  0.429 0.375     0.597  
 8 NMNAT1    224.           1.36   0.775 0.0150    0.0767 
 9 CCDC27      3.27         0.0885 1.32  0.856    NA      
10 MMEL1       3.89         0.576  1.28  0.306     0.527  
# ℹ 12,971 more rows
…
ℹ Use `spec()` to retrieve the full column specification for this data.
ℹ Specify the column types or set `show_col_types = FALSE` to quiet this message.
Rows: 13087 Columns: 6
── Column specification ────────────────────────────────────────────────────────
Delimiter: ","
chr (1): gene
dbl (5): baseMean, log2FoldChange, lfcSE, pvalue, padj

ℹ Use `spec()` to retrieve the full column specification for this data.
ℹ Specify the column types or set `show_col_types = FALSE` to quiet this message.
# A tibble: 13,088 × 6
   gene    baseMean log2FoldChange lfcSE  pvalue    padj
   <chr>      <dbl>          <dbl> <dbl>   <dbl>   <dbl>
 1 PRDM16     498.          -0.797 0.509 0.0111  0.0408 
 2 PEX10     2519.          -1.06  0.756 0.00879 0.0341 
 3 PEX14    27579.           0.202 0.221 0.270   0.446  
 4 PLCH2     6672.          -0.319 0.414 0.203   0.367  
 5 SPSB1     2273.           1.01  0.461 0.00140 0.00752
 6 SLC2A5     995.           0.248 0.351 0.286   0.463  
 7 PLEKHM2  25963.           0.445 0.316 0.0516  0.134  
 8 NMNAT1   11033.           0.165 0.265 0.417   0.593  
 9 CCDC27      74.8          0.238 0.389 0.321   0.501  
10 MMEL1      129.           0.386 0.542 0.165   0.316  
# ℹ 13,078 more rows
…
ℹ Use `spec()` to retrieve the full column specification for this data.
ℹ Specify the column types or set `show_col_types = FALSE` to quiet this message.
Rows: 13087 Columns: 6
── Column specification ────────────────────────────────────────────────────────
Delimiter: ","
chr (1): gene
dbl (5): baseMean, log2FoldChange, lfcSE, pvalue, padj

ℹ Use `spec()` to retrieve the full column specification for this data.
ℹ Specify the column types or set `show_col_types = FALSE` to quiet this message.
# A tibble: 13,088 × 6
   gene    baseMean log2FoldChange lfcSE pvalue   padj
   <chr>      <dbl>          <dbl> <dbl>  <dbl>  <dbl>
 1 PRDM16     156.         -0.512  0.358 0.0271 0.101 
 2 PEX10      959.         -0.881  0.761 0.0181 0.0747
 3 PEX14    13154.          0.0643 0.253 0.712  0.851 
 4 PLCH2     4263.         -0.153  0.354 0.455  0.666 
 5 SPSB1      620.          0.599  0.392 0.0171 0.0715
 6 SLC2A5     353.          0.227  0.337 0.267  0.483 
 7 PLEKHM2   9622.          0.332  0.315 0.104  0.263 
 8 NMNAT1    4454.          0.119  0.268 0.508  0.707 
 9 CCDC27      30.1        -0.231  0.586 0.345  0.565 
10 MMEL1      123.          0.753  0.635 0.0238 0.0916
# ℹ 13,078 more rows
…
ℹ Use `spec()` to retrieve the full column specification for this data.
ℹ Specify the column types or set `show_col_types = FALSE` to quiet this message.
Rows: 12729 Columns: 6
── Column specification ────────────────────────────────────────────────────────
Delimiter: ","
chr (1): gene
dbl (5): baseMean, log2FoldChange, lfcSE, pvalue, padj

ℹ Use `spec()` to retrieve the full column specification for this data.
ℹ Specify the column types or set `show_col_types = FALSE` to quiet this message.
# A tibble: 12,673 × 6
   gene    baseMean log2FoldChange lfcSE   pvalue    padj
   <chr>      <dbl>          <dbl> <dbl>    <dbl>   <dbl>
 1 PRDM16    63.8         -1.06    2.28  0.0464    0.312 
 2 PEX10      1.98        -0.330   1.38  0.340    NA     
 3 PEX14    138.          -0.00213 0.460 0.988     0.997 
 4 PLCH2      8.16        -0.0473  0.945 0.865     0.973 
 5 SPSB1     34.9          3.97    1.83  0.000813  0.0306
 6 SLC2A5   345.           0.0543  0.521 0.732     0.947 
 7 PLEKHM2  156.          -0.466   0.975 0.100     0.441 
 8 NMNAT1    75.7         -0.192   0.812 0.422     0.795 
 9 CCDC27     0.421       -0.164   1.30  0.598    NA     
10 MMEL1      1.59         0.230   1.20  0.476    NA     
# ℹ 12,663 more rows
…
ℹ Use `spec()` to retrieve the full column specification for this data.
ℹ Specify the column types or set `show_col_types = FALSE` to quiet this message.
Rows: 13049 Columns: 6
── Column specification ────────────────────────────────────────────────────────
Delimiter: ","
chr (1): gene
dbl (5): baseMean, log2FoldChange, lfcSE, pvalue, padj

ℹ Use `spec()` to retrieve the full column specification for this data.
ℹ Specify the column types or set `show_col_types = FALSE` to quiet this message.
# A tibble: 13,030 × 6
   gene    baseMean log2FoldChange lfcSE  pvalue    padj
   <chr>      <dbl>          <dbl> <dbl>   <dbl>   <dbl>
 1 PRDM16    19.8          -0.598  1.21  0.137    0.432 
 2 PEX10     27.3          -0.786  1.24  0.0805   0.322 
 3 PEX14    901.           -0.0131 0.161 0.816    0.968 
 4 PLCH2    110.           -1.71   1.53  0.0123   0.0996
 5 SPSB1    817.            2.36   1.12  0.00149  0.0221
 6 SLC2A5    17.5           0.168  0.729 0.538    0.837 
 7 PLEKHM2  629.            0.493  0.623 0.0517   0.250 
 8 NMNAT1   264.           -0.519  0.804 0.0979   0.360 
 9 CCDC27     0.811         0.0135 1.15  0.958   NA     
10 MMEL1      1.82         -0.179  1.15  0.531   NA     
# ℹ 13,020 more rows
…
ℹ Use `spec()` to retrieve the full column specification for this data.
ℹ Specify the column types or set `show_col_types = FALSE` to quiet this message.
Rows: 12931 Columns: 6
── Column specification ────────────────────────────────────────────────────────
Delimiter: ","
chr (1): gene
dbl (5): baseMean, log2FoldChange, lfcSE, pvalue, padj

ℹ Use `spec()` to retrieve the full column specification for this data.
ℹ Specify the column types or set `show_col_types = FALSE` to quiet this message.
# A tibble: 12,895 × 6
   gene    baseMean log2FoldChange lfcSE  pvalue    padj
   <chr>      <dbl>          <dbl> <dbl>   <dbl>   <dbl>
 1 PRDM16     3.15         -0.0632 1.01  0.843   NA     
 2 PEX10     12.7          -1.81   1.71  0.00887  0.0778
 3 PEX14    203.            0.139  0.508 0.644    0.845 
 4 PLCH2      2.15         -0.116  1.04  0.715   NA     
 5 SPSB1     86.9           1.24   0.730 0.00874  0.0772
 6 SLC2A5     5.20          0.315  0.918 0.396   NA     
 7 PLEKHM2  177.            1.10   0.435 0.00101  0.0203
 8 NMNAT1    36.6           0.0852 0.501 0.775    0.911 
 9 CCDC27     0.305        -0.129  1.19  0.624   NA     
10 MMEL1      1.08          0.144  1.05  0.652   NA     
# ℹ 12,885 more rows
…
ℹ Use `spec()` to retrieve the full column specification for this data.
ℹ Specify the column types or set `show_col_types = FALSE` to quiet this message.
Rows: 7824 Columns: 6
── Column specification ────────────────────────────────────────────────────────
Delimiter: ","
chr (1): gene
dbl (5): baseMean, log2FoldChange, lfcSE, pvalue, padj

ℹ Use `spec()` to retrieve the full column specification for this data.
ℹ Specify the column types or set `show_col_types = FALSE` to quiet this message.
# A tibble: 7,468 × 6
   gene    baseMean log2FoldChange  lfcSE pvalue  padj
   <chr>      <dbl>          <dbl>  <dbl>  <dbl> <dbl>
 1 PRDM16    2.37       -0.000847  0.0890  0.763 0.998
 2 PLCH2     0.115       0.000573  0.0890  0.725 0.998
 3 SLC2A5    0.0453     -0.000294  0.0890  0.855 0.998
 4 DISP3     0.484       0.00101   0.0890  0.546 0.998
 5 TMEM51    1.99        0.000127  0.0890  0.965 0.998
 6 ALDH4A1   1.14       -0.00159   0.0890  0.397 0.998
 7 VPS13D    0.115       0.000573  0.0890  0.725 0.998
 8 HES5      0.713       0.0000457 0.0890  0.980 0.998
 9 SZRD1     0.138       0.000429  0.0890  0.793 0.998
10 SLC9A1    0.346       0.00104   0.0890  0.534 0.998
# ℹ 7,458 more rows
…
ℹ Use `spec()` to retrieve the full column specification for this data.
ℹ Specify the column types or set `show_col_types = FALSE` to quiet this message.
Rows: 11093 Columns: 6
── Column specification ────────────────────────────────────────────────────────
Delimiter: ","
chr (1): gene
dbl (5): baseMean, log2FoldChange, lfcSE, pvalue, padj

ℹ Use `spec()` to retrieve the full column specification for this data.
ℹ Specify the column types or set `show_col_types = FALSE` to quiet this message.
# A tibble: 11,049 × 6
   gene    baseMean log2FoldChange lfcSE pvalue  padj
   <chr>      <dbl>          <dbl> <dbl>  <dbl> <dbl>
 1 PRDM16    3.63       -0.00939   0.214 0.236  NA   
 2 PEX14    16.7         0.00309   0.120 0.593   1.00
 3 PLCH2   292.         -0.0175    0.166 0.0707  1.00
 4 SPSB1     5.34        0.00251   0.130 0.660  NA   
 5 SLC2A5    0.0282      0.000570  0.175 0.929  NA   
 6 PLEKHM2  35.1         0.00168   0.102 0.789   1.00
 7 DISP3    33.5         0.00186   0.105 0.756   1.00
 8 TMEM51    0.319      -0.0000608 0.172 0.992  NA   
 9 FBXO42   17.8         0.000956  0.116 0.863   1.00
10 CLCN6    10.9         0.000174  0.110 0.975   1.00
# ℹ 11,039 more rows
…
ℹ Use `spec()` to retrieve the full column specification for this data.
ℹ Specify the column types or set `show_col_types = FALSE` to quiet this message.
Rows: 10852 Columns: 6
── Column specification ────────────────────────────────────────────────────────
Delimiter: ","
chr (1): gene
dbl (5): baseMean, log2FoldChange, lfcSE, pvalue, padj

ℹ Use `spec()` to retrieve the full column specification for this data.
ℹ Specify the column types or set `show_col_types = FALSE` to quiet this message.
# A tibble: 10,585 × 6
   gene    baseMean log2FoldChange lfcSE pvalue   padj
   <chr>      <dbl>          <dbl> <dbl>  <dbl>  <dbl>
 1 PEX14     4.30          0.252   0.690  0.209 NA    
 2 PLCH2    46.4          -0.443   0.601  0.155  0.564
 3 SPSB1     0.357         0.0185  0.706  0.861 NA    
 4 PLEKHM2   0.566        -0.00817 0.706  0.939 NA    
 5 DISP3     2.52          0.0500  0.691  0.745 NA    
 6 TMEM51    4.66         -0.137   0.666  0.518 NA    
 7 FBXO42    0.786        -0.0212  0.706  0.842 NA    
 8 ALDH4A1   0.0317        0.00885 0.706  0.932 NA    
 9 CLCN6     1.96          0.0164  0.693  0.910 NA    
10 PANK4     2.26          0.137   0.700  0.358 NA    
# ℹ 10,575 more rows
…
ℹ Use `spec()` to retrieve the full column specification for this data.
ℹ Specify the column types or set `show_col_types = FALSE` to quiet this message.
Rows: 8683 Columns: 6
── Column specification ────────────────────────────────────────────────────────
Delimiter: ","
chr (1): gene
dbl (5): baseMean, log2FoldChange, lfcSE, pvalue, padj

ℹ Use `spec()` to retrieve the full column specification for this data.
ℹ Specify the column types or set `show_col_types = FALSE` to quiet this message.
# A tibble: 9,891 × 6
   gene    baseMean log2FoldChange lfcSE pvalue  padj
   <chr>      <dbl>          <dbl> <dbl>  <dbl> <dbl>
 1 PRDM16   0.482       -0.00663   0.156 0.181  0.999
 2 PEX14    0.0748      -0.0000924 0.156 0.986  0.999
 3 PLCH2    0.791        0.000139  0.156 0.979  0.999
 4 SPSB1    0.00374     -0.00348   0.156 0.491  0.999
 5 SLC2A5   7.72        -0.0173    0.156 0.0198 0.999
 6 PLEKHM2  0.0523      -0.000519  0.156 0.920  0.999
 7 DISP3    0.0262      -0.00134   0.156 0.794  0.999
 8 TMEM51   0.486       -0.00462   0.156 0.361  0.999
 9 FBXO42   0.0150      -0.00199   0.156 0.698  0.999
10 PANK4    0.161        0.000830  0.156 0.872  0.999
# ℹ 9,881 more rows
…
